{
    "GRADER": [
        {
            "drop_count": 0,
            "min_count": 36,
            "short_label": "ProgressMarker",
            "type": "ProgressMarker",
            "weight": 1.0
        },
        {
            "drop_count": 0,
            "min_count": 1,
            "short_label": "TimingFeedback",
            "type": "TimingFeedback",
            "weight": 0.0
        }
    ],
    "GRADE_CUTOFFS": {
        "Pass": 0.99
    }
}